"", "nick@mail.mail", "фыв", "", "nick@mail.mail", "фыва", \n"", "nick@mail.mail", "фыв", \n"", "nick@mail.mail", "ыва", "", "nick@mail.mail", "фыв", "Serega", "serega@mail.su", "Hello, how are y?", "nick", "nick@mail.mail", "asfddgadsv", "nick", "nick@mail.mail", "asf", "nick", "nick@mail.mail", "aGWEADSFC", "nick", "nick@mail.mail", "ewvfweqwv", "nick", "nick@mail.mail", "wegvfqawerg", "nick", "nick@mail.mail", "arbgarebgv", "nick", "nick@mail.mail", "qerwqebge", "nick", "nick@mail.mail", "фыва", "asd", "fackhim@mail.ru", "фываам", "asd", "nick@mail.mail", "цупцу", "nick", "nick@mail.mail", "Также вы можете заполнить данную форму и написать мне сообщение, я его обязательно прочитаю и, возможно, отвечу вам =)

Ваши данные успешно отправлены", "nick", "nick@mail.mail", "Также вы можете заполнить данную форму и написать мне сообщение, я его обязательно прочитаю и, возможно, отвечу вам =)

Ваши данные успешно отправлены", "agasdf", "nick@mail.mail", "adg", 